Engineering a computational surface modeling toolbox in Julia
…
Run nested sampling

mc = MCRandomWalkClone()
ns_params = NestedSamplingParameters(200, 0.1, 0.01, 1e-5, 1.0, 0, 200)
n_iters = 10_000
save = SaveEveryN(n_traj=10, n_snap=n_iters)

SaveEveryN("output_df.csv", "output.traj.extxyz", "output.ls.extxyz", 10, 10000)

if isfile("output_df.csv")
run(`rm output_df.csv output.ls.extxyz output.traj.extxyz`) # delete previous output
end
energies, live, _ = nested_sampling_loop!(ls, ns_params, n_iters, mc, save)

(10000×2 DataFrame
   Row │ iter   emax           
       │ Int64  Float64        
───────┼───────────────────────
     1 │     1      1.92261e14
     2 │     2      2.78391e8
     3 │     3      5.0478e7
     4 │     4      5.68552e6
     5 │     5      4.92321e6
     6 │     6      1.33197e6
     7 │     7      7.32672e5
     8 │     8      5.15036e5
     9 │     9      3.24388e5
    10 │    10  88732.5
    11 │    11  63978.0
   ⋮   │   ⋮          ⋮
  9991 │  9991    -12.712
  9992 │  9992    -12.712
  9993 │  9993    -12.712
  9994 │  9994    -12.712
  9995 │  9995    -12.712
  9996 │  9996    -12.712
  9997 │  9997    -12.712
  9998 │  9998    -12.712
  9999 │  9999    -12.712
 10000 │ 10000    -12.712
              9979 rows omitted, LJAtomWalkers(AtomWalker{1}, LJParameters):
…
